(module L_PA4343.XXXANLT (layer F.Cu) (tedit 5BAB6CC5)
  (fp_text reference REF** (at -4.75 -7.5) (layer F.SilkS)
    (effects (font (size 1 1) (thickness 0.15)))
  )
  (fp_text value L_PA4343.XXXANLT (at 0 8) (layer F.Fab)
    (effects (font (size 1 1) (thickness 0.15)))
  )
  (fp_line (start -6.75 -3) (end -6.75 -6.3) (layer F.SilkS) (width 0.2))
  (fp_line (start -6.75 -6.3) (end 0 -6.3) (layer F.SilkS) (width 0.2))
  (fp_line (start 6.75 -3) (end 6.75 -6.3) (layer F.SilkS) (width 0.2))
  (fp_line (start 6.75 -6.3) (end 0 -6.3) (layer F.SilkS) (width 0.2))
  (fp_line (start -6.75 3) (end -6.75 6.3) (layer F.SilkS) (width 0.2))
  (fp_line (start -6.75 6.3) (end 0 6.3) (layer F.SilkS) (width 0.2))
  (fp_line (start 6.75 3) (end 6.75 6.3) (layer F.SilkS) (width 0.2))
  (fp_line (start 6.75 6.3) (end 0 6.3) (layer F.SilkS) (width 0.2))
  (pad 1 smd roundrect (at -5.625 0) (size 3.25 5) (layers F.Cu F.Paste F.Mask) (roundrect_rratio 0.05)
    (solder_mask_margin 0.05))
  (pad 2 smd roundrect (at 5.625 0) (size 3.25 5) (layers F.Cu F.Paste F.Mask) (roundrect_rratio 0.05)
    (solder_mask_margin 0.05))
)
