(module LOGO (layer F.Cu)
  (at 0 0)
 (fp_text reference "G***" (at 0 0) (layer F.SilkS) hide
  (effects (font (thickness 0.3)))
  )
  (fp_text value "LOGO" (at 0.75 0) (layer F.SilkS) hide
  (effects (font (thickness 0.3)))
  )
  (fp_poly (pts (xy -37.157683 -3.958167) (xy -37.153442 -3.135161) (xy -37.147108 -2.476891) (xy -37.138526 -1.978767) (xy -37.127540 -1.636204) (xy -37.113996 -1.444612) (xy -37.097737 -1.399405) (xy -37.078608 -1.495996)
     (xy -37.075305 -1.524000) (xy -36.888767 -2.732329) (xy -36.604821 -3.961437) (xy -36.239597 -5.151922) (xy -36.232405 -5.170179) (xy -35.454575 -5.170179) (xy -35.442994 -5.164667) (xy -35.365728 -5.224270)
     (xy -35.348333 -5.249333) (xy -35.326759 -5.328488) (xy -35.338340 -5.334000) (xy -35.415605 -5.274397) (xy -35.433000 -5.249333) (xy -35.454575 -5.170179) (xy -36.232405 -5.170179) (xy -35.917711 -5.969000)
     (xy -35.306000 -5.969000) (xy -35.263667 -5.926667) (xy -35.221333 -5.969000) (xy -35.263667 -6.011333) (xy -35.306000 -5.969000) (xy -35.917711 -5.969000) (xy -35.832154 -6.186179) (xy -35.115908 -6.186179)
     (xy -35.104327 -6.180667) (xy -35.027062 -6.240270) (xy -35.009667 -6.265333) (xy -34.988092 -6.344488) (xy -34.999673 -6.350000) (xy -35.076939 -6.290397) (xy -35.094333 -6.265333) (xy -35.115908 -6.186179)
     (xy -35.832154 -6.186179) (xy -35.809225 -6.244380) (xy -35.770054 -6.331038) (xy -35.454801 -7.020700) (xy -35.001749 -7.015288) (xy -34.548698 -7.009877) (xy -34.989488 -6.392333) (xy -34.680938 -6.709834)
     (xy -34.471422 -6.892301) (xy -34.277683 -7.007106) (xy -34.196348 -7.027333) (xy -34.115918 -7.011653) (xy -34.119762 -6.947546) (xy -34.219813 -6.809412) (xy -34.387988 -6.616269) (xy -34.644183 -6.313752)
     (xy -34.905623 -5.980166) (xy -35.043362 -5.790769) (xy -35.162149 -5.616779) (xy -35.212759 -5.528700) (xy -35.183496 -5.533541) (xy -35.062665 -5.638310) (xy -34.838571 -5.850017) (xy -34.662362 -6.019099)
     (xy -34.258129 -6.401510) (xy -33.949050 -6.676819) (xy -33.713634 -6.860676) (xy -33.530388 -6.968729) (xy -33.377821 -7.016627) (xy -33.283749 -7.022893) (xy -33.062333 -7.018452) (xy -33.271358 -6.874726)
     (xy -34.089316 -6.219594) (xy -34.851714 -5.424399) (xy -35.536393 -4.515085) (xy -36.094442 -3.569597) (xy -36.537615 -2.631787) (xy -36.854142 -1.763229) (xy -37.052928 -0.931681) (xy -37.142874 -0.104905)
     (xy -37.150319 0.254000) (xy -37.149960 0.508815) (xy -37.150200 0.907779) (xy -37.150988 1.425707) (xy -37.152273 2.037417) (xy -37.154002 2.717724) (xy -37.156124 3.441445) (xy -37.158097 4.042833)
     (xy -37.168667 7.112000) (xy -38.777333 7.112000) (xy -38.777333 -7.027333) (xy -37.168667 -7.027333) (xy -37.157683 -3.958167) )(layer Eco2.User) (width  0.010000)
  )
  (fp_poly (pts (xy -36.970281 1.524000) (xy -36.773875 2.222254) (xy -36.517389 2.889790) (xy -36.181057 3.569726) (xy -35.745112 4.305181) (xy -35.573012 4.572000) (xy -35.240536 5.032021) (xy -34.837834 5.517013)
     (xy -34.401526 5.988165) (xy -33.968231 6.406664) (xy -33.574569 6.733697) (xy -33.452092 6.819920) (xy -33.244286 6.980049) (xy -33.187335 7.079925) (xy -33.280178 7.111790) (xy -33.487243 7.076836)
     (xy -33.623785 7.000816) (xy -33.850949 6.829600) (xy -34.139095 6.587202) (xy -34.458581 6.297635) (xy -34.516380 6.243070) (xy -34.837876 5.939547) (xy -35.049055 5.746575) (xy -35.160902 5.656550)
     (xy -35.184400 5.661873) (xy -35.130533 5.754941) (xy -35.047603 5.875435) (xy -34.819844 6.179506) (xy -34.550090 6.513036) (xy -34.387988 6.700935) (xy -34.197422 6.921494) (xy -34.113140 7.046415)
     (xy -34.123207 7.101297) (xy -34.196348 7.112000) (xy -34.353942 7.053940) (xy -34.561618 6.905740) (xy -34.680938 6.794500) (xy -34.989488 6.477000) (xy -34.769093 6.785771) (xy -34.548698 7.094543)
     (xy -35.001749 7.099954) (xy -35.454801 7.105366) (xy -35.770054 6.415704) (xy -35.821961 6.289602) (xy -35.123019 6.289602) (xy -35.102418 6.336918) (xy -35.017168 6.427812) (xy -34.968158 6.409166)
     (xy -34.967333 6.397330) (xy -35.027470 6.325717) (xy -35.065082 6.299582) (xy -35.123019 6.289602) (xy -35.821961 6.289602) (xy -35.919080 6.053667) (xy -35.306000 6.053667) (xy -35.263667 6.096000)
     (xy -35.221333 6.053667) (xy -35.263667 6.011333) (xy -35.306000 6.053667) (xy -35.919080 6.053667) (xy -36.130429 5.540231) (xy -36.220417 5.273602) (xy -35.461686 5.273602) (xy -35.441085 5.320918)
     (xy -35.355835 5.411812) (xy -35.306824 5.393166) (xy -35.306000 5.381330) (xy -35.366137 5.309717) (xy -35.403749 5.283582) (xy -35.461686 5.273602) (xy -36.220417 5.273602) (xy -36.449701 4.594248)
     (xy -36.714444 3.627796) (xy -36.911227 2.690914) (xy -37.026623 1.833644) (xy -37.037693 1.691962) (xy -37.080915 1.058333) (xy -36.970281 1.524000) )(layer Eco2.User) (width  0.010000)
  )
  (fp_poly (pts (xy -21.070063 3.957403) (xy -21.039202 4.101204) (xy -21.118211 4.335097) (xy -21.288829 4.638469) (xy -21.532791 4.990704) (xy -21.831837 5.371191) (xy -22.167704 5.759314) (xy -22.522129 6.134460)
     (xy -22.876850 6.476015) (xy -23.213605 6.763366) (xy -23.514131 6.975898) (xy -23.760166 7.092998) (xy -23.862436 7.109318) (xy -24.087667 7.106635) (xy -23.834563 6.918818) (xy -22.902983 6.140789)
     (xy -22.108281 5.293846) (xy -21.463634 4.392254) (xy -21.394423 4.276701) (xy -21.230030 4.031403) (xy -21.114515 3.941925) (xy -21.070063 3.957403) )(layer Eco2.User) (width  0.010000)
  )
  (fp_poly (pts (xy -17.372407 3.610362) (xy -17.356667 3.769780) (xy -17.403941 4.016282) (xy -17.534392 4.350962) (xy -17.730959 4.748009) (xy -17.976584 5.181615) (xy -18.254206 5.625969) (xy -18.546767 6.055263)
     (xy -18.837207 6.443686) (xy -19.108467 6.765429) (xy -19.343487 6.994682) (xy -19.525208 7.105636) (xy -19.565777 7.112000) (xy -19.620969 7.085805) (xy -19.593768 6.994799) (xy -19.473392 6.820349)
     (xy -19.249063 6.543821) (xy -19.210660 6.498167) (xy -18.909602 6.121193) (xy -18.611810 5.702995) (xy -18.293581 5.208146) (xy -17.931212 4.601221) (xy -17.865236 4.487333) (xy -17.792903 4.336309)
     (xy -17.691811 4.095825) (xy -17.637796 3.958484) (xy -17.518228 3.688496) (xy -17.427930 3.571224) (xy -17.372407 3.610362) )(layer Eco2.User) (width  0.010000)
  )
  (fp_poly (pts (xy -13.307311 1.332969) (xy -13.292667 1.387647) (xy -13.313141 1.596020) (xy -13.368458 1.924853) (xy -13.449461 2.331088) (xy -13.546991 2.771669) (xy -13.651891 3.203537) (xy -13.755004 3.583637)
     (xy -13.771770 3.640253) (xy -13.941088 4.142729) (xy -14.150718 4.670918) (xy -14.387889 5.201262) (xy -14.639829 5.710205) (xy -14.893765 6.174190) (xy -15.136925 6.569661) (xy -15.356537 6.873061)
     (xy -15.539829 7.060832) (xy -15.654108 7.112000) (xy -15.722998 7.093788) (xy -15.724131 7.021926) (xy -15.647577 6.870573) (xy -15.483405 6.613888) (xy -15.434611 6.540817) (xy -14.802588 5.463474)
     (xy -14.277233 4.283609) (xy -14.097615 3.780478) (xy -13.947533 3.297296) (xy -13.808512 2.792738) (xy -13.690084 2.307250) (xy -13.601781 1.881276) (xy -13.553138 1.555262) (xy -13.546667 1.442903)
     (xy -13.494561 1.302198) (xy -13.419667 1.270000) (xy -13.307311 1.332969) )(layer Eco2.User) (width  0.010000)
  )
  (fp_poly (pts (xy -10.222551 3.061943) (xy -10.196541 3.118351) (xy -10.205808 3.239091) (xy -10.254808 3.446033) (xy -10.347999 3.761044) (xy -10.489838 4.205992) (xy -10.558273 4.416304) (xy -10.723517 4.883633)
     (xy -10.916315 5.366595) (xy -11.123410 5.838203) (xy -11.331546 6.271471) (xy -11.527467 6.639411) (xy -11.697917 6.915035) (xy -11.829640 7.071356) (xy -11.874500 7.095957) (xy -11.999343 7.104701)
     (xy -12.022667 7.091517) (xy -11.986664 7.007579) (xy -11.888743 6.803820) (xy -11.744033 6.511210) (xy -11.574975 6.175142) (xy -11.008781 4.925271) (xy -10.575106 3.661320) (xy -10.538919 3.534833)
     (xy -10.434387 3.235443) (xy -10.331010 3.072196) (xy -10.279379 3.048000) (xy -10.222551 3.061943) )(layer Eco2.User) (width  0.010000)
  )
  (fp_poly (pts (xy 38.777333 7.112000) (xy -7.620000 7.112000) (xy -7.620067 6.582833) (xy -7.620134 6.053667) (xy -7.870472 6.582833) (xy -8.024734 6.870132) (xy -8.162761 7.056401) (xy -8.251405 7.112000)
     (xy -8.366608 7.088051) (xy -8.382000 7.066852) (xy -8.346674 6.972703) (xy -8.255324 6.776039) (xy -8.161498 6.586565) (xy -8.025814 6.298790) (xy -7.861856 5.922099) (xy -7.699842 5.526487)
     (xy -7.661235 5.427792) (xy -7.528541 5.105972) (xy -7.407576 4.850427) (xy -7.316787 4.698549) (xy -7.289070 4.673356) (xy -7.209397 4.704914) (xy -7.216270 4.880849) (xy -7.309565 5.200066)
     (xy -7.365957 5.354258) (xy -7.458908 5.609292) (xy -7.520416 5.798137) (xy -7.535291 5.863167) (xy -7.452023 5.869741) (xy -7.207790 5.876127) (xy -6.810960 5.882291) (xy -6.269899 5.888199)
     (xy -5.592977 5.893816) (xy -4.788560 5.899108) (xy -3.865016 5.904042) (xy -2.830714 5.908582) (xy -1.694021 5.912694) (xy -0.463305 5.916345) (xy 0.853066 5.919501) (xy 2.246725 5.922126)
     (xy 3.709303 5.924187) (xy 5.232433 5.925650) (xy 6.807748 5.926480) (xy 8.001000 5.926667) (xy 23.537333 5.926667) (xy 23.537333 4.741333) (xy 33.020000 4.741333) (xy 33.020000 -4.148667)
     (xy 23.537333 -4.148667) (xy 23.537333 -5.842000) (xy 8.001000 -5.842000) (xy 6.392485 -5.841811) (xy 4.829968 -5.841256) (xy 3.321816 -5.840354) (xy 1.876397 -5.839124) (xy 0.502079 -5.837586)
     (xy -0.792770 -5.835757) (xy -1.999782 -5.833658) (xy -3.110590 -5.831308) (xy -4.116826 -5.828724) (xy -5.010121 -5.825927) (xy -5.782109 -5.822935) (xy -6.424421 -5.819768) (xy -6.928689 -5.816444)
     (xy -7.286546 -5.812982) (xy -7.489623 -5.809402) (xy -7.535333 -5.806690) (xy -7.510074 -5.717015) (xy -7.441580 -5.500860) (xy -7.340783 -5.192182) (xy -7.237310 -4.880748) (xy -7.089108 -4.407298)
     (xy -6.942008 -3.885856) (xy -6.818959 -3.399737) (xy -6.774790 -3.201559) (xy -6.669251 -2.644847) (xy -6.581165 -2.080652) (xy -6.512177 -1.532483) (xy -6.463930 -1.023849) (xy -6.438068 -0.578259)
     (xy -6.436236 -0.219220) (xy -6.460077 0.029758) (xy -6.511236 0.145167) (xy -6.540500 0.148415) (xy -6.600193 0.046939) (xy -6.650409 -0.216727) (xy -6.691657 -0.645591) (xy -6.702616 -0.811141)
     (xy -6.842298 -2.148422) (xy -7.092581 -3.470114) (xy -7.443643 -4.737894) (xy -7.885659 -5.913438) (xy -8.161109 -6.501129) (xy -8.297815 -6.776098) (xy -8.362333 -6.933448) (xy -8.360288 -7.005953)
     (xy -8.297304 -7.026391) (xy -8.251405 -7.027333) (xy -8.145332 -6.952993) (xy -8.003695 -6.750771) (xy -7.870472 -6.498167) (xy -7.620134 -5.969000) (xy -7.620067 -6.498167) (xy -7.620000 -7.027333)
     (xy 38.777333 -7.027333) (xy 38.777333 7.112000) )(layer Eco2.User) (width  0.010000)
  )
  (fp_poly (pts (xy -6.546937 1.262961) (xy -6.523677 1.473093) (xy -6.530215 1.781604) (xy -6.566380 2.154371) (xy -6.606325 2.418617) (xy -6.713297 2.991068) (xy -6.823816 3.501740) (xy -6.931855 3.928420)
     (xy -7.031390 4.248890) (xy -7.116395 4.440936) (xy -7.167410 4.487333) (xy -7.271358 4.433036) (xy -7.281333 4.395606) (xy -7.261516 4.274490) (xy -7.209005 4.036231) (xy -7.134215 3.727441)
     (xy -7.115831 3.654773) (xy -7.016774 3.225522) (xy -6.922434 2.749270) (xy -6.859614 2.370667) (xy -6.791749 1.902085) (xy -6.741085 1.575848) (xy -6.702049 1.366505) (xy -6.669072 1.248606)
     (xy -6.636583 1.196701) (xy -6.600164 1.185333) (xy -6.546937 1.262961) )(layer Eco2.User) (width  0.010000)
  )
  (fp_poly (pts (xy -20.117729 1.324147) (xy -20.113935 1.503651) (xy -20.125058 1.587500) (xy -20.183056 1.863886) (xy -20.281129 2.232490) (xy -20.402385 2.638560) (xy -20.529931 3.027343) (xy -20.646875 3.344088)
     (xy -20.712802 3.492500) (xy -20.829783 3.661777) (xy -20.935040 3.725271) (xy -20.993893 3.666691) (xy -20.997333 3.626143) (xy -20.967907 3.500407) (xy -20.891119 3.270187) (xy -20.794041 3.012309)
     (xy -20.664784 2.648525) (xy -20.533492 2.221092) (xy -20.443927 1.883833) (xy -20.350636 1.553480) (xy -20.259939 1.340293) (xy -20.186876 1.270000) (xy -20.117729 1.324147) )(layer Eco2.User) (width  0.010000)
  )
  (fp_poly (pts (xy -19.388893 -6.954431) (xy -19.153169 -6.749812) (xy -18.875804 -6.434609) (xy -18.572416 -6.029955) (xy -18.258624 -5.556981) (xy -17.950044 -5.036819) (xy -17.662295 -4.490603) (xy -17.604442 -4.371354)
     (xy -17.130148 -3.183907) (xy -16.809418 -1.940272) (xy -16.644036 -0.659346) (xy -16.635790 0.639976) (xy -16.786464 1.938798) (xy -16.940239 2.656146) (xy -17.052239 3.061866) (xy -17.144086 3.302719)
     (xy -17.217606 3.381742) (xy -17.274625 3.301968) (xy -17.290726 3.238500) (xy -17.286287 3.070611) (xy -17.238656 2.820775) (xy -17.208437 2.709333) (xy -17.102588 2.273707) (xy -17.005568 1.729874)
     (xy -16.925598 1.138955) (xy -16.870901 0.562077) (xy -16.849700 0.060362) (xy -16.849665 0.042333) (xy -16.932804 -1.207596) (xy -17.176798 -2.446319) (xy -17.573513 -3.651836) (xy -18.114815 -4.802150)
     (xy -18.792570 -5.875260) (xy -19.256588 -6.467324) (xy -19.481928 -6.741256) (xy -19.602056 -6.912427) (xy -19.628182 -7.001040) (xy -19.571517 -7.027294) (xy -19.567358 -7.027333) (xy -19.388893 -6.954431) )(layer Eco2.User) (width  0.010000)
  )
  (fp_poly (pts (xy -11.750973 -6.912460) (xy -11.577451 -6.652961) (xy -11.357450 -6.243199) (xy -11.277301 -6.081178) (xy -10.764109 -4.914122) (xy -10.375193 -3.759673) (xy -10.095651 -2.564816) (xy -9.910581 -1.276535)
     (xy -9.901166 -1.185333) (xy -9.863015 -0.653736) (xy -9.848798 -0.083789) (xy -9.856310 0.499197) (xy -9.883346 1.069908) (xy -9.927704 1.603035) (xy -9.987178 2.073264) (xy -10.059564 2.455285)
     (xy -10.142658 2.723785) (xy -10.234255 2.853452) (xy -10.253498 2.860516) (xy -10.319891 2.859482) (xy -10.346962 2.801863) (xy -10.335087 2.655021) (xy -10.284639 2.386315) (xy -10.260286 2.268666)
     (xy -10.190299 1.798243) (xy -10.144538 1.202674) (xy -10.122533 0.524334) (xy -10.123813 -0.194400) (xy -10.147909 -0.911153) (xy -10.194349 -1.583548) (xy -10.262664 -2.169210) (xy -10.312716 -2.455333)
     (xy -10.697359 -3.942375) (xy -11.224856 -5.348827) (xy -11.533300 -6.006189) (xy -11.712766 -6.372448) (xy -11.856380 -6.681155) (xy -11.950956 -6.902762) (xy -11.983308 -7.007721) (xy -11.981984 -7.011572)
     (xy -11.883867 -7.029420) (xy -11.750973 -6.912460) )(layer Eco2.User) (width  0.010000)
  )
  (fp_poly (pts (xy -36.939452 -0.104846) (xy -36.925821 0.115764) (xy -36.941161 0.233820) (xy -36.964047 0.253612) (xy -36.976888 0.132026) (xy -36.977982 0.042333) (xy -36.969646 -0.121631) (xy -36.950523 -0.146507)
     (xy -36.939452 -0.104846) )(layer Eco2.User) (width  0.010000)
  )
  (fp_poly (pts (xy -20.106109 -0.936085) (xy -20.028703 -0.712296) (xy -19.986881 -0.368568) (xy -19.981333 -0.158750) (xy -20.003691 0.072730) (xy -20.077214 0.165028) (xy -20.108333 0.169333) (xy -20.185426 0.127008)
     (xy -20.224809 -0.021221) (xy -20.235333 -0.289409) (xy -20.244468 -0.573494) (xy -20.267852 -0.800664) (xy -20.286725 -0.882075) (xy -20.279454 -0.996233) (xy -20.212642 -1.016000) (xy -20.106109 -0.936085) )(layer Eco2.User) (width  0.010000)
  )
  (fp_poly (pts (xy -15.518478 -6.953191) (xy -15.329831 -6.745075) (xy -15.102320 -6.424453) (xy -14.850096 -6.012793) (xy -14.587313 -5.531562) (xy -14.349908 -5.049081) (xy -13.847755 -3.784673) (xy -13.490975 -2.448346)
     (xy -13.276832 -1.029232) (xy -13.244966 -0.656167) (xy -13.220442 -0.271503) (xy -13.216054 -0.026101) (xy -13.234119 0.109172) (xy -13.276958 0.163447) (xy -13.310673 0.169333) (xy -13.372322 0.134265)
     (xy -13.418550 0.011908) (xy -13.454832 -0.223469) (xy -13.486641 -0.597596) (xy -13.492572 -0.685575) (xy -13.658012 -2.009746) (xy -13.974251 -3.320932) (xy -14.430713 -4.587713) (xy -15.016823 -5.778666)
     (xy -15.434611 -6.456150) (xy -15.619363 -6.739440) (xy -15.714317 -6.911720) (xy -15.729401 -6.998832) (xy -15.674546 -7.026617) (xy -15.654108 -7.027333) (xy -15.518478 -6.953191) )(layer Eco2.User) (width  0.010000)
  )
  (fp_poly (pts (xy -20.545722 -2.887005) (xy -20.438753 -2.684377) (xy -20.386278 -2.540000) (xy -20.311709 -2.293931) (xy -20.293342 -2.168073) (xy -20.332650 -2.122393) (xy -20.401868 -2.116667) (xy -20.540040 -2.194565)
     (xy -20.603712 -2.349500) (xy -20.663351 -2.600981) (xy -20.708837 -2.772833) (xy -20.718750 -2.925514) (xy -20.642369 -2.963333) (xy -20.545722 -2.887005) )(layer Eco2.User) (width  0.010000)
  )
  (fp_poly (pts (xy -23.653023 -6.972846) (xy -23.351385 -6.795224) (xy -22.966058 -6.478131) (xy -22.494410 -6.019613) (xy -22.391169 -5.912524) (xy -22.103487 -5.594950) (xy -21.814468 -5.247605) (xy -21.546091 -4.900324)
     (xy -21.320336 -4.582939) (xy -21.159181 -4.325283) (xy -21.084606 -4.157190) (xy -21.082000 -4.135540) (xy -21.123554 -4.049458) (xy -21.235548 -4.092000) (xy -21.398982 -4.248007) (xy -21.594853 -4.502319)
     (xy -21.655578 -4.593167) (xy -22.215045 -5.343076) (xy -22.876170 -6.042556) (xy -23.489316 -6.561667) (xy -23.760254 -6.770953) (xy -23.906327 -6.903513) (xy -23.942954 -6.977453) (xy -23.885556 -7.010882)
     (xy -23.873605 -7.012950) (xy -23.653023 -6.972846) )(layer Eco2.User) (width  0.010000)
  )
)
